W4P001
W4P002
W4P003
W4P004
W4P005
W4P006
W4P007
W4P008
W4P009
W4P010
W4P011
W4P012
W4P013
W4P014
W4P015
W4P016
W4P017
W4P018
W4P019
W4P020
W4P021
W4P022
W4P023
W4P024
W4P025
W4P026
W4P027
W4P028
W4P029
W4P030
W4P031
W4P032
W4P033
W4P034
W4P035
W4P036
W4P037
W4P038
W4P039
W4P040
W4P041
W4P042
W4P043
W4P044
W4P045
W4P046
W4P047
W4P048
W4P049
W4P050
W4P051
W4P052
W4P053
W4P054
W4P055
W4P056
W4P057
W4P058
W4P059
W4P060
W4P061
W4P062
W4P063
W4P064
W4P065
W4P066
W4P067
W4P068
W4P069
W4P070
W4P071
W4P072
W4P073
W4P074
W4P075
W4P076
W4P077
W4P078
W4P081
W4P082
W4P083
W4P084
W4P085
W4P086
W4P087
W4P088
W4P089
W4P090
W4P091
W4P092
W4P093
W4P094
W4P095
W4P096
W4P097
W4P098
